Constituency,Respondents_count,topn
South West Wiltshire,105,"[('eu', 60), ('brexit', 102), ('nhs', 24), ('economy', 71), ('immigration', 71)]"
Hayes and Harlington,64,"[('immigration', 120), ('terrorism', 16), ('unemployment', 13), ('brexit', 31), ('economy', 30)]"
Ceredigion,209,"[('eu', 94), ('economy', 196), ('nhs', 73), ('brexit', 160), ('immigration', 127)]"
Harlow,88,"[('eu', 38), ('immigration', 93), ('nhs', 27), ('economy', 53), ('brexit', 57)]"
Taunton Deane,96,"[('eu', 62), ('economy', 97), ('immigration', 91), ('nhs', 39), ('brexit', 66)]"
New Forest West,66,"[('economy', 51), ('immigration', 77), ('europe', 14), ('eu', 38), ('brexit', 79)]"
Derby North,85,"[('economy', 60), ('eu', 28), ('nhs', 44), ('brexit', 63), ('immigration', 92)]"
Bridgwater and West Somerset,100,"[('economy', 44), ('eu', 39), ('brexit', 69), ('immigration', 110), ('nhs', 43)]"
Cambridge,171,"[('nhs', 62), ('immigration', 83), ('economy', 103), ('eu', 77), ('brexit', 129)]"
Hove,97,"[('nhs', 36), ('immigration', 51), ('brexit', 80), ('economy', 61), ('eu', 32)]"
Stretford and Urmston,79,"[('immigration', 66), ('brexit', 49), ('eu', 18), ('economy', 31), ('nhs', 64)]"
Peterborough,90,"[('economy', 39), ('brexit', 50), ('eu', 31), ('nhs', 73), ('immigration', 108)]"
Ellesmere Port and Neston,77,"[('economy', 45), ('nhs', 52), ('eu', 42), ('immigration', 65), ('brexit', 58)]"
West Ham,119,"[('eu', 33), ('immigration', 85), ('brexit', 77), ('housing', 52), ('economy', 77)]"
Lewes,82,"[('brexit', 68), ('eu', 36), ('nhs', 25), ('immigration', 113), ('economy', 38)]"
"Ayr, Carrick and Cumnock",147,"[('brexit', 94), ('economy', 122), ('eu', 45), ('immigration', 84), ('independence', 47)]"
Christchurch,75,"[('immigration', 58), ('referendum', 22), ('economy', 58), ('eu', 46), ('brexit', 57)]"
"Brighton, Pavilion",124,"[('economy', 57), ('nhs', 51), ('immigration', 38), ('eu', 56), ('brexit', 89)]"
West Bromwich East,52,"[('economy', 27), ('brexit', 24), ('eu', 21), ('immigration', 68), ('terrorism', 12)]"
Windsor,73,"[('eu', 33), ('nhs', 26), ('immigration', 70), ('economy', 37), ('brexit', 73)]"
Alyn and Deeside,119,"[('nhs', 57), ('brexit', 64), ('immigration', 121), ('economy', 104), ('eu', 51)]"
Coventry North West,102,"[('eu', 30), ('brexit', 69), ('economy', 74), ('immigration', 145), ('nhs', 35)]"
Bognor Regis and Littlehampton,102,"[('eu', 46), ('brexit', 102), ('immigration', 129), ('nhs', 43), ('economy', 38)]"
Leigh,84,"[('eu', 46), ('economy', 52), ('nhs', 47), ('immigration', 99), ('brexit', 74)]"
Moray,153,"[('eu', 65), ('brexit', 118), ('independence', 52), ('immigration', 86), ('economy', 110)]"
Warrington South,100,"[('economy', 65), ('eu', 44), ('immigration', 118), ('nhs', 43), ('brexit', 64)]"
Witham,95,"[('immigration', 114), ('brexit', 62), ('eu', 40), ('nhs', 49), ('economy', 83)]"
Blyth Valley,85,"[('economy', 39), ('terrorism', 27), ('immigration', 70), ('eu', 35), ('brexit', 64)]"
Aldridge-Brownhills,77,"[('brexit', 68), ('eu', 39), ('referendum', 22), ('terrorism', 22), ('immigration', 80), ('economy', 80)]"
Leeds West,116,"[('economy', 33), ('immigration', 96), ('brexit', 61), ('eu', 35), ('nhs', 56)]"
Islwyn,126,"[('economy', 90), ('eu', 45), ('nhs', 44), ('immigration', 147), ('brexit', 87)]"
Eddisbury,61,"[('immigration', 66), ('eu', 23), ('brexit', 63), ('nhs', 27), ('economy', 38)]"
Walsall North,65,"[('immigration', 69), ('nhs', 18), ('eu', 18), ('brexit', 42), ('economy', 36)]"
Penistone and Stocksbridge,72,"[('brexit', 44), ('economy', 57), ('eu', 26), ('immigration', 105), ('terrorism', 23)]"
Hertsmere,91,"[('eu', 25), ('immigration', 80), ('brexit', 79), ('economy', 77), ('nhs', 23)]"
Stevenage,103,"[('brexit', 68), ('nhs', 42), ('immigration', 123), ('economy', 71), ('eu', 53)]"
Hackney South and Shoreditch,87,"[('nhs', 19), ('eu', 36), ('brexit', 61), ('immigration', 41), ('economy', 29)]"
Hornchurch and Upminster,109,"[('immigration', 154), ('brexit', 78), ('eu', 39), ('economy', 63), ('nhs', 27)]"
Pendle,88,"[('economy', 51), ('brexit', 61), ('immigration', 126), ('eu', 45), ('nhs', 32)]"
Bolton West,89,"[('brexit', 44), ('nhs', 36), ('immigration', 91), ('economy', 42), ('terrorism', 31)]"
North Wiltshire,83,"[('brexit', 84), ('economy', 60), ('eu', 42), ('immigration', 65), ('nhs', 30)]"
Sheffield Central,152,"[('economy', 91), ('brexit', 91), ('eu', 44), ('nhs', 49), ('immigration', 50)]"
East Surrey,95,"[('economy', 59), ('immigration', 77), ('nhs', 21), ('brexit', 72), ('eu', 29)]"
North East Fife,159,"[('brexit', 107), ('immigration', 83), ('independence', 38), ('economy', 117), ('eu', 59)]"
Arfon,101,"[('nhs', 50), ('eu', 28), ('economy', 74), ('immigration', 73), ('brexit', 63)]"
Newcastle-under-Lyme,68,"[('nhs', 45), ('brexit', 59), ('economy', 43), ('immigration', 43), ('eu', 35)]"
Dundee East,156,"[('economy', 147), ('immigration', 85), ('brexit', 85), ('eu', 39), ('independence', 60)]"
Wolverhampton South West,74,"[('economy', 35), ('eu', 23), ('nhs', 24), ('brexit', 48), ('immigration', 87)]"
Stirling,136,"[('eu', 54), ('economy', 108), ('brexit', 118), ('immigration', 59), ('independence', 55)]"
Colchester,110,"[('immigration', 64), ('economy', 50), ('brexit', 62), ('eu', 42), ('nhs', 41)]"
Chelsea and Fulham,83,"[('economy', 67), ('housing', 31), ('nhs', 28), ('immigration', 41), ('brexit', 58)]"
Cannock Chase,71,"[('nhs', 29), ('eu', 25), ('economy', 27), ('brexit', 55), ('immigration', 73)]"
East Hampshire,79,"[('economy', 59), ('eu', 22), ('brexit', 85), ('nhs', 24), ('immigration', 47)]"
Glasgow North,203,"[('independence', 62), ('economy', 170), ('eu', 58), ('inequality', 69), ('brexit', 98)]"
Westminster North,64,"[('economy', 51), ('immigration', 45), ('brexit', 46), ('housing', 30), ('eu', 25)]"
"Ross, Skye and Lochaber",157,"[('economy', 156), ('brexit', 133), ('eu', 66), ('immigration', 89), ('independence', 76)]"
Stone,77,"[('brexit', 68), ('nhs', 28), ('eu', 38), ('economy', 53), ('immigration', 50)]"
North Shropshire,85,"[('economy', 48), ('brexit', 86), ('eu', 34), ('immigration', 57), ('nhs', 33)]"
Carmarthen East and Dinefwr,116,"[('eu', 38), ('nhs', 34), ('immigration', 152), ('economy', 105), ('brexit', 113)]"
Orpington,96,"[('eu', 46), ('economy', 76), ('brexit', 86), ('immigration', 113), ('terrorism', 23)]"
Portsmouth South,116,"[('eu', 60), ('immigration', 77), ('economy', 81), ('nhs', 44), ('brexit', 95)]"
Barnsley East,77,"[('economy', 40), ('terrorism', 20), ('brexit', 62), ('immigration', 97), ('nhs', 24)]"
City of Chester,95,"[('immigration', 58), ('economy', 35), ('brexit', 61), ('nhs', 33), ('eu', 40)]"
"Birmingham, Perry Barr",59,"[('economy', 19), ('immigration', 93), ('terrorism', 17), ('brexit', 25), ('nhs', 32)]"
Clacton,87,"[('immigration', 90), ('nhs', 31), ('brexit', 85), ('economy', 42), ('eu', 39)]"
Corby,90,"[('nhs', 50), ('brexit', 70), ('immigration', 102), ('eu', 32), ('economy', 62)]"
Ealing Central and Acton,127,"[('nhs', 39), ('economy', 114), ('brexit', 88), ('immigration', 89), ('eu', 47)]"
Epsom and Ewell,80,"[('brexit', 60), ('economy', 60), ('immigration', 81), ('referendum', 18), ('eu', 29)]"
North Thanet,103,"[('immigration', 178), ('nhs', 43), ('brexit', 63), ('economy', 53), ('terrorism', 36)]"
Stockton South,88,"[('nhs', 42), ('economy', 73), ('brexit', 72), ('immigration', 73), ('eu', 40)]"
Edinburgh North and Leith,289,"[('scottish', 81), ('referendum', 80), ('brexit', 238), ('eu', 95), ('economy', 278)]"
Perth and North Perthshire,184,"[('economy', 155), ('eu', 76), ('immigration', 131), ('brexit', 151), ('referendum', 58)]"
Woking,91,"[('immigration', 66), ('nhs', 34), ('brexit', 62), ('eu', 26), ('economy', 88)]"
Worthing West,105,"[('immigration', 114), ('brexit', 68), ('eu', 55), ('nhs', 35), ('economy', 107)]"
Bexleyheath and Crayford,90,"[('eu', 28), ('economy', 66), ('immigration', 121), ('nhs', 38), ('brexit', 73)]"
Hastings and Rye,135,"[('immigration', 85), ('eu', 49), ('nhs', 60), ('brexit', 90), ('economy', 69)]"
South Suffolk,90,"[('nhs', 31), ('economy', 29), ('brexit', 72), ('eu', 32), ('immigration', 119)]"
North West Cambridgeshire,120,"[('economy', 75), ('eu', 58), ('brexit', 112), ('nhs', 46), ('immigration', 132)]"
Bolton South East,71,"[('economy', 27), ('eu', 26), ('terrorism', 25), ('brexit', 32), ('immigration', 81)]"
"Birmingham, Ladywood",69,"[('eu', 16), ('immigration', 47), ('economy', 43), ('nhs', 15), ('debt', 15), ('brexit', 39)]"
Rother Valley,88,"[('immigration', 98), ('nhs', 28), ('economy', 53), ('eu', 50), ('brexit', 84)]"
North Durham,81,"[('economy', 40), ('brexit', 51), ('nhs', 39), ('immigration', 73), ('eu', 35)]"
Glasgow North West,146,"[('eu', 39), ('economy', 159), ('brexit', 111), ('immigration', 44), ('nhs', 40)]"
Rossendale and Darwen,84,"[('economy', 44), ('nhs', 32), ('immigration', 147), ('terrorism', 31), ('brexit', 57)]"
South Basildon and East Thurrock,69,"[('immigration', 82), ('eu', 18), ('economy', 72), ('brexit', 42), ('nhs', 30)]"
Keighley,80,"[('nhs', 45), ('brexit', 51), ('eu', 29), ('economy', 56), ('immigration', 71)]"
East Renfrewshire,147,"[('economy', 171), ('immigration', 136), ('scottish', 48), ('independence', 50), ('brexit', 97)]"
Newbury,96,"[('economy', 67), ('brexit', 72), ('nhs', 27), ('eu', 48), ('immigration', 63)]"
Louth and Horncastle,110,"[('economy', 59), ('brexit', 94), ('nhs', 55), ('eu', 50), ('immigration', 124)]"
Rayleigh and Wickford,116,"[('eu', 54), ('immigration', 147), ('brexit', 103), ('economy', 85), ('nhs', 40)]"
Lancaster and Fleetwood,107,"[('brexit', 68), ('nhs', 56), ('economy', 57), ('eu', 43), ('immigration', 111)]"
Ilford South,81,"[('eu', 33), ('brexit', 62), ('economy', 47), ('nhs', 31), ('immigration', 76)]"
Preston,76,"[('nhs', 37), ('eu', 28), ('immigration', 43), ('brexit', 48), ('economy', 30)]"
Meriden,76,"[('economy', 67), ('eu', 22), ('immigration', 123), ('brexit', 64), ('nhs', 15)]"
"Plymouth, Moor View",83,"[('brexit', 52), ('immigration', 80), ('nhs', 37), ('eu', 31), ('terrorism', 29)]"
Cardiff North,213,"[('economy', 259), ('immigration', 181), ('brexit', 150), ('eu', 82), ('nhs', 61)]"
Gloucester,113,"[('immigration', 98), ('eu', 45), ('economy', 49), ('brexit', 79), ('nhs', 40)]"
Broxbourne,85,"[('immigration', 149), ('nhs', 42), ('economy', 48), ('brexit', 75), ('eu', 43)]"
Wellingborough,110,"[('eu', 39), ('economy', 63), ('brexit', 72), ('immigration', 129), ('nhs', 43)]"
Nottingham North,63,"[('nhs', 13), ('brexit', 50), ('economy', 40), ('immigration', 84), ('eu', 32)]"
North Swindon,81,"[('immigration', 74), ('nhs', 29), ('eu', 37), ('brexit', 88), ('economy', 48)]"
Cardiff Central,184,"[('terrorism', 38), ('brexit', 78), ('eu', 55), ('economy', 136), ('immigration', 79)]"
Clwyd West,148,"[('nhs', 96), ('eu', 50), ('brexit', 103), ('immigration', 127), ('economy', 158)]"
Lewisham West and Penge,130,"[('economy', 108), ('eu', 55), ('housing', 46), ('brexit', 114), ('immigration', 111)]"
Blackburn,78,"[('nhs', 45), ('economy', 28), ('immigration', 104), ('brexit', 32), ('eu', 28)]"
Sedgefield,108,"[('eu', 49), ('brexit', 62), ('referendum', 20), ('economy', 80), ('immigration', 92)]"
Houghton and Sunderland South,82,"[('brexit', 38), ('nhs', 41), ('economy', 32), ('eu', 28), ('immigration', 79)]"
Bradford South,76,"[('nhs', 26), ('immigration', 144), ('eu', 26), ('economy', 32), ('brexit', 41)]"
Croydon Central,118,"[('brexit', 84), ('nhs', 37), ('eu', 59), ('immigration', 148), ('economy', 94)]"
Guildford,122,"[('nhs', 37), ('brexit', 118), ('immigration', 115), ('economy', 71), ('eu', 53)]"
South Holland and The Deepings,120,"[('economy', 75), ('brexit', 112), ('eu', 71), ('immigration', 158), ('nhs', 32)]"
Buckingham,80,"[('brexit', 60), ('immigration', 53), ('economy', 73), ('eu', 30), ('referendum', 21)]"
Spelthorne,87,"[('eu', 30), ('economy', 55), ('brexit', 77), ('immigration', 134), ('nhs', 23)]"
Glasgow South West,109,"[('immigration', 60), ('brexit', 84), ('scottish', 26), ('terrorism', 26), ('economy', 77), ('independence', 33)]"
Southend West,94,"[('immigration', 138), ('eu', 41), ('economy', 41), ('nhs', 29), ('brexit', 57)]"
Newton Abbot,90,"[('immigration', 96), ('nhs', 44), ('economy', 63), ('brexit', 87), ('eu', 51)]"
Scarborough and Whitby,99,"[('brexit', 83), ('eu', 44), ('economy', 48), ('immigration', 84), ('nhs', 56)]"
Enfield North,86,"[('immigration', 157), ('economy', 57), ('nhs', 28), ('eu', 37), ('brexit', 81)]"
Sleaford and North Hykeham,135,"[('immigration', 162), ('eu', 76), ('economy', 72), ('nhs', 62), ('brexit', 135)]"
Barnsley Central,69,"[('brexit', 62), ('immigration', 91), ('economy', 48), ('nhs', 19), ('eu', 27)]"
"Birmingham, Yardley",79,"[('brexit', 46), ('immigration', 104), ('eu', 39), ('economy', 48), ('nhs', 27)]"
Hornsey and Wood Green,128,"[('economy', 115), ('inequality', 35), ('brexit', 102), ('housing', 59), ('eu', 51)]"
Kingston and Surbiton,161,"[('brexit', 139), ('economy', 140), ('nhs', 37), ('eu', 58), ('immigration', 188)]"
Ashford,144,"[('brexit', 108), ('immigration', 160), ('eu', 79), ('terrorism', 34), ('economy', 74)]"
Glasgow East,65,"[('brexit', 44), ('scottish', 16), ('independence', 23), ('nhs', 19), ('economy', 61)]"
North Warwickshire,85,"[('brexit', 54), ('nhs', 20), ('immigration', 137), ('terrorism', 20), ('eu', 22), ('economy', 44)]"
Northampton North,78,"[('brexit', 54), ('nhs', 43), ('economy', 48), ('immigration', 100), ('eu', 35)]"
Walsall South,66,"[('immigration', 82), ('brexit', 35), ('eu', 30), ('nhs', 28), ('economy', 38)]"
Leeds Central,122,"[('eu', 38), ('immigration', 78), ('nhs', 46), ('brexit', 74), ('economy', 94)]"
Tonbridge and Malling,58,"[('immigration', 58), ('referendum', 17), ('economy', 39), ('eu', 24), ('brexit', 34)]"
Stourbridge,84,"[('nhs', 22), ('terrorism', 27), ('eu', 22), ('brexit', 45), ('immigration', 102), ('economy', 46)]"
Bristol West,139,"[('eu', 57), ('nhs', 30), ('immigration', 31), ('brexit', 90), ('economy', 78)]"
South West Surrey,78,"[('immigration', 50), ('brexit', 75), ('eu', 50), ('economy', 72), ('nhs', 24)]"
Chipping Barnet,158,"[('eu', 54), ('nhs', 47), ('immigration', 147), ('economy', 130), ('brexit', 135)]"
Burnley,56,"[('terrorism', 14), ('brexit', 21), ('nhs', 16), ('economy', 29), ('immigration', 79)]"
Batley and Spen,101,"[('eu', 36), ('terrorism', 33), ('economy', 57), ('brexit', 96), ('immigration', 140)]"
Streatham,147,"[('economy', 123), ('nhs', 50), ('brexit', 102), ('eu', 49), ('housing', 59)]"
Bolsover,87,"[('immigration', 90), ('nhs', 36), ('eu', 34), ('brexit', 71), ('economy', 45)]"
Rushcliffe,101,"[('economy', 60), ('brexit', 102), ('eu', 39), ('immigration', 72), ('nhs', 26)]"
Dartford,110,"[('economy', 68), ('immigration', 160), ('eu', 55), ('terrorism', 40), ('brexit', 82)]"
South Down,1,"[('youth', 1), ('recession', 1), ('unemployment', 1)]"
Bishop Auckland,90,"[('immigration', 101), ('eu', 48), ('nhs', 47), ('brexit', 71), ('economy', 61)]"
"Berwickshire, Roxburgh and Selkirk",202,"[('brexit', 155), ('scottish', 74), ('immigration', 141), ('eu', 77), ('economy', 269)]"
Pudsey,110,"[('eu', 57), ('nhs', 60), ('economy', 104), ('brexit', 90), ('immigration', 79)]"
Huddersfield,82,"[('eu', 38), ('brexit', 59), ('economy', 42), ('nhs', 30), ('immigration', 60)]"
Edinburgh West,181,"[('immigration', 98), ('brexit', 166), ('economy', 191), ('eu', 66), ('independence', 76)]"
Battersea,109,"[('housing', 48), ('economy', 121), ('brexit', 88), ('immigration', 40), ('nhs', 43)]"
Neath,130,"[('brexit', 92), ('immigration', 136), ('nhs', 47), ('economy', 95), ('eu', 29)]"
Staffordshire Moorlands,51,"[('eu', 22), ('brexit', 32), ('economy', 40), ('terrorism', 21), ('immigration', 47)]"
Fylde,83,"[('nhs', 37), ('brexit', 86), ('immigration', 91), ('economy', 49), ('eu', 51)]"
South West Bedfordshire,105,"[('eu', 36), ('immigration', 136), ('economy', 74), ('brexit', 79), ('nhs', 35)]"
Newcastle upon Tyne East,122,"[('eu', 29), ('economy', 79), ('brexit', 79), ('immigration', 84), ('nhs', 41)]"
Glenrothes,121,"[('immigration', 98), ('nhs', 37), ('brexit', 85), ('economy', 79), ('referendum', 38)]"
Runnymede and Weybridge,95,"[('immigration', 61), ('eu', 39), ('economy', 71), ('housing', 20), ('brexit', 73)]"
Leeds North East,107,"[('terrorism', 42), ('brexit', 107), ('economy', 80), ('immigration', 97), ('eu', 48)]"
Rhondda,86,"[('eu', 36), ('nhs', 42), ('economy', 65), ('immigration', 81), ('brexit', 47)]"
Ashton-under-Lyne,65,"[('economy', 25), ('terrorism', 21), ('immigration', 89), ('eu', 18), ('brexit', 33)]"
"Southampton, Test",122,"[('eu', 54), ('brexit', 107), ('nhs', 47), ('immigration', 100), ('economy', 60)]"
Filton and Bradley Stoke,89,"[('economy', 59), ('immigration', 67), ('nhs', 24), ('eu', 35), ('brexit', 57)]"
Hackney North and Stoke Newington,99,"[('nhs', 45), ('brexit', 94), ('economy', 89), ('eu', 32), ('inequality', 59)]"
Winchester,103,"[('immigration', 80), ('economy', 58), ('nhs', 25), ('eu', 45), ('brexit', 82)]"
Rochdale,62,"[('eu', 22), ('economy', 52), ('immigration', 56), ('brexit', 39), ('terrorism', 12)]"
"Birmingham, Hodge Hill",54,"[('immigration', 45), ('economy', 8), ('brexit', 29), ('eu', 19), ('imigration', 7), ('referendum', 7), ('terrorism', 7)]"
"Birmingham, Northfield",97,"[('nhs', 25), ('brexit', 54), ('eu', 34), ('economy', 47), ('immigration', 87)]"
Slough,59,"[('nhs', 13), ('brexit', 43), ('terrorism', 16), ('economy', 23), ('immigration', 71)]"
Chesterfield,103,"[('terrorism', 25), ('brexit', 93), ('eu', 58), ('immigration', 97), ('economy', 74)]"
Hexham,76,"[('brexit', 52), ('eu', 41), ('economy', 57), ('immigration', 65), ('nhs', 27)]"
Somerton and Frome,76,"[('nhs', 27), ('immigration', 54), ('economy', 45), ('brexit', 66), ('eu', 35)]"
Totnes,75,"[('economy', 30), ('eu', 53), ('immigration', 62), ('brexit', 71), ('nhs', 32)]"
Crawley,89,"[('economy', 75), ('nhs', 31), ('immigration', 107), ('brexit', 71), ('eu', 55)]"
Dunfermline and West Fife,178,"[('eu', 62), ('immigration', 96), ('economy', 199), ('independence', 51), ('brexit', 105)]"
Witney,87,"[('immigration', 50), ('nhs', 34), ('economy', 71), ('eu', 29), ('brexit', 74)]"
Kettering,96,"[('immigration', 72), ('brexit', 62), ('economy', 56), ('nhs', 35), ('eu', 32)]"
Wythenshawe and Sale East,96,"[('brexit', 60), ('economy', 43), ('nhs', 60), ('eu', 28), ('immigration', 84)]"
Vauxhall,132,"[('economy', 91), ('brexit', 93), ('housing', 52), ('eu', 39), ('nhs', 32)]"
Sheffield South East,80,"[('nhs', 23), ('brexit', 56), ('economy', 56), ('immigration', 116), ('eu', 29)]"
Scunthorpe,68,"[('brexit', 67), ('eu', 28), ('immigration', 61), ('nhs', 23), ('economy', 44)]"
South Shields,76,"[('immigration', 69), ('economy', 50), ('brexit', 51), ('nhs', 27), ('eu', 29)]"
Sittingbourne and Sheppey,103,"[('immigration', 125), ('nhs', 34), ('eu', 45), ('brexit', 58), ('economy', 60)]"
West Suffolk,78,"[('nhs', 27), ('eu', 55), ('brexit', 80), ('economy', 45), ('immigration', 132)]"
Doncaster Central,92,"[('brexit', 51), ('eu', 19), ('nhs', 74), ('economy', 55), ('immigration', 133), ('terrorism', 19)]"
South Thanet,105,"[('immigration', 144), ('brexit', 50), ('nhs', 39), ('eu', 45), ('economy', 61)]"
Kingswood,75,"[('eu', 36), ('economy', 49), ('immigration', 67), ('nhs', 44), ('brexit', 55)]"
Chingford and Woodford Green,87,"[('nhs', 29), ('immigration', 76), ('eu', 42), ('economy', 96), ('brexit', 90)]"
Mid Worcestershire,74,"[('terrorism', 17), ('brexit', 83), ('immigration', 99), ('eu', 32), ('economy', 60)]"
Aberavon,98,"[('poverty', 32), ('brexit', 61), ('immigration', 70), ('economy', 72), ('nhs', 43)]"
Sunderland Central,105,"[('nhs', 39), ('immigration', 107), ('eu', 34), ('economy', 61), ('brexit', 57)]"
"Inverness, Nairn, Badenoch and Strathspey",175,"[('economy', 169), ('brexit', 133), ('eu', 75), ('independence', 82), ('immigration', 104)]"
Caerphilly,131,"[('eu', 62), ('economy', 108), ('brexit', 72), ('immigration', 105), ('nhs', 41)]"
"Cumbernauld, Kilsyth and Kirkintilloch East",129,"[('brexit', 94), ('eu', 31), ('independence', 43), ('scottish', 31), ('economy', 113), ('immigration', 121)]"
Wolverhampton South East,63,"[('eu', 21), ('immigration', 72), ('nhs', 17), ('brexit', 31), ('economy', 21)]"
Eltham,111,"[('nhs', 37), ('economy', 68), ('eu', 40), ('brexit', 114), ('immigration', 119)]"
York Outer,137,"[('brexit', 108), ('economy', 108), ('eu', 60), ('immigration', 83), ('nhs', 62)]"
Mid Derbyshire,94,"[('economy', 84), ('immigration', 80), ('nhs', 49), ('eu', 37), ('brexit', 89)]"
"Dumfriesshire, Clydesdale and Tweeddale",138,"[('eu', 65), ('brexit', 115), ('scottish', 48), ('economy', 143), ('immigration', 89)]"
Gainsborough,100,"[('immigration', 104), ('eu', 42), ('economy', 63), ('nhs', 46), ('brexit', 105)]"
Carshalton and Wallington,112,"[('economy', 97), ('eu', 34), ('immigration', 110), ('brexit', 80), ('nhs', 39)]"
Sefton Central,62,"[('nhs', 34), ('economy', 49), ('eu', 28), ('brexit', 46), ('immigration', 47)]"
Banff and Buchan,97,"[('nhs', 37), ('brexit', 59), ('eu', 26), ('immigration', 62), ('economy', 101)]"
Central Ayrshire,146,"[('economy', 147), ('eu', 39), ('immigration', 118), ('independence', 36), ('brexit', 73)]"
Kingston upon Hull West and Hessle,73,"[('eu', 25), ('economy', 17), ('brexit', 55), ('nhs', 27), ('immigration', 87)]"
Solihull,99,"[('economy', 52), ('eu', 28), ('nhs', 28), ('brexit', 74), ('immigration', 132)]"
"Birmingham, Hall Green",67,"[('brexit', 36), ('nhs', 31), ('economy', 58), ('immigration', 54), ('eu', 28)]"
Kingston upon Hull East,74,"[('brexit', 60), ('economy', 33), ('eu', 28), ('nhs', 35), ('immigration', 63)]"
High Peak,90,"[('nhs', 29), ('immigration', 62), ('brexit', 47), ('economy', 37), ('eu', 29)]"
Tamworth,76,"[('economy', 43), ('immigration', 69), ('brexit', 59), ('eu', 32), ('nhs', 18)]"
Stalybridge and Hyde,92,"[('economy', 31), ('immigration', 93), ('brexit', 48), ('nhs', 27), ('eu', 48)]"
Aldershot,93,"[('immigration', 106), ('nhs', 31), ('economy', 27), ('eu', 37), ('brexit', 65)]"
Sevenoaks,76,"[('nhs', 24), ('eu', 39), ('brexit', 64), ('economy', 53), ('immigration', 79)]"
Mitcham and Morden,96,"[('economy', 51), ('eu', 33), ('immigration', 75), ('brexit', 77), ('housing', 22)]"
Paisley and Renfrewshire South,147,"[('independence', 42), ('economy', 95), ('immigration', 89), ('brexit', 114), ('referendum', 42)]"
Hereford and South Herefordshire,60,"[('eu', 30), ('referendum', 15), ('economy', 49), ('immigration', 115), ('brexit', 45)]"
Watford,107,"[('economy', 76), ('immigration', 110), ('eu', 37), ('brexit', 98), ('nhs', 34)]"
Broadland,85,"[('nhs', 33), ('brexit', 83), ('immigration', 94), ('eu', 37), ('economy', 53)]"
Bethnal Green and Bow,129,"[('housing', 45), ('economy', 74), ('nhs', 36), ('eu', 31), ('brexit', 82)]"
South Swindon,99,"[('eu', 46), ('brexit', 67), ('immigration', 72), ('economy', 66), ('nhs', 32)]"
Worsley and Eccles South,85,"[('nhs', 37), ('brexit', 59), ('eu', 27), ('immigration', 100), ('economy', 35)]"
Harrogate and Knaresborough,97,"[('brexit', 84), ('economy', 52), ('immigration', 105), ('nhs', 59), ('eu', 51)]"
Rochford and Southend East,111,"[('nhs', 45), ('immigration', 133), ('economy', 66), ('brexit', 79), ('eu', 39)]"
Stockport,71,"[('nhs', 26), ('economy', 34), ('eu', 23), ('immigration', 41), ('brexit', 41)]"
Putney,109,"[('brexit', 84), ('eu', 52), ('economy', 81), ('immigration', 45), ('nhs', 27)]"
Devizes,58,"[('immigration', 37), ('eu', 28), ('economy', 66), ('nhs', 19), ('brexit', 57)]"
Sherwood,101,"[('brexit', 77), ('immigration', 131), ('nhs', 31), ('eu', 56), ('economy', 34)]"
Croydon North,112,"[('immigration', 58), ('housing', 49), ('eu', 38), ('economy', 70), ('brexit', 81)]"
Leeds North West,96,"[('eu', 36), ('brexit', 69), ('economy', 74), ('immigration', 97), ('nhs', 24)]"
Eastbourne,126,"[('brexit', 84), ('nhs', 39), ('economy', 103), ('eu', 64), ('immigration', 127)]"
West Dunbartonshire,131,"[('immigration', 52), ('brexit', 73), ('referendum', 40), ('independence', 45), ('economy', 77), ('eu', 40)]"
Derby South,89,"[('eu', 42), ('economy', 50), ('immigration', 102), ('brexit', 63), ('nhs', 38)]"
Glasgow Central,201,"[('economy', 99), ('immigration', 83), ('inequality', 58), ('poverty', 63), ('brexit', 114)]"
Finchley and Golders Green,122,"[('nhs', 32), ('eu', 34), ('immigration', 87), ('economy', 125), ('brexit', 106)]"
Mid Norfolk,86,"[('brexit', 76), ('immigration', 80), ('nhs', 35), ('economy', 45), ('eu', 35)]"
South West Norfolk,95,"[('brexit', 65), ('nhs', 24), ('eu', 50), ('economy', 61), ('immigration', 127)]"
"Liverpool, Walton",56,"[('brexit', 28), ('economy', 22), ('immigration', 33), ('terrorism', 22), ('nhs', 32)]"
Warrington North,77,"[('eu', 30), ('nhs', 32), ('brexit', 73), ('economy', 38), ('immigration', 103)]"
Kilmarnock and Loudoun,165,"[('immigration', 106), ('independence', 64), ('scottish', 53), ('economy', 141), ('brexit', 84)]"
Saffron Walden,77,"[('brexit', 68), ('immigration', 45), ('referendum', 14), ('eu', 31), ('economy', 31)]"
Ludlow,63,"[('brexit', 68), ('nhs', 31), ('eu', 34), ('economy', 47), ('immigration', 41)]"
Bristol East,98,"[('economy', 51), ('immigration', 112), ('eu', 30), ('brexit', 86), ('nhs', 30)]"
Lewisham East,113,"[('eu', 46), ('immigration', 117), ('brexit', 93), ('nhs', 29), ('economy', 84)]"
St Albans,83,"[('nhs', 26), ('terrorism', 23), ('brexit', 71), ('immigration', 52), ('economy', 54)]"
Torbay,89,"[('nhs', 45), ('brexit', 75), ('economy', 58), ('immigration', 102), ('eu', 43)]"
Luton South,73,"[('economy', 44), ('eu', 26), ('immigration', 70), ('nhs', 19), ('brexit', 48)]"
Bracknell,117,"[('immigration', 66), ('brexit', 94), ('economy', 119), ('eu', 62), ('nhs', 40)]"
The Wrekin,83,"[('nhs', 21), ('brexit', 67), ('immigration', 104), ('eu', 29), ('economy', 57)]"
West Lancashire,86,"[('eu', 33), ('immigration', 115), ('nhs', 27), ('economy', 53), ('brexit', 57)]"
"East Kilbride, Strathaven and Lesmahagow",172,"[('independence', 41), ('brexit', 99), ('economy', 177), ('immigration', 91), ('eu', 52)]"
West Dorset,95,"[('immigration', 74), ('brexit', 107), ('economy', 47), ('eu', 40), ('nhs', 41)]"
South East Cornwall,104,"[('eu', 65), ('brexit', 75), ('immigration', 83), ('economy', 87), ('nhs', 54)]"
"Brighton, Kemptown",110,"[('eu', 48), ('economy', 55), ('nhs', 47), ('immigration', 110), ('brexit', 74)]"
Cleethorpes,95,"[('economy', 56), ('brexit', 86), ('immigration', 105), ('eu', 48), ('nhs', 40)]"
North Ayrshire and Arran,167,"[('nhs', 53), ('brexit', 118), ('immigration', 126), ('eu', 61), ('economy', 182)]"
South Dorset,101,"[('immigration', 85), ('economy', 73), ('nhs', 27), ('brexit', 87), ('eu', 64)]"
South Leicestershire,105,"[('immigration', 70), ('nhs', 26), ('economy', 74), ('brexit', 96), ('eu', 43)]"
"Lewisham, Deptford",165,"[('eu', 60), ('immigration', 89), ('nhs', 65), ('brexit', 151), ('economy', 126)]"
Wokingham,117,"[('immigration', 77), ('economy', 81), ('brexit', 120), ('referendum', 33), ('eu', 59)]"
Leyton and Wanstead,104,"[('brexit', 76), ('nhs', 34), ('immigration', 96), ('eu', 34), ('economy', 65)]"
Lincoln,148,"[('immigration', 130), ('eu', 48), ('brexit', 117), ('nhs', 61), ('economy', 126)]"
Warley,63,"[('immigration', 44), ('eu', 28), ('nhs', 27), ('economy', 45), ('brexit', 49)]"
Ealing North,80,"[('brexit', 51), ('eu', 19), ('economy', 32), ('nhs', 27), ('immigration', 103)]"
Glasgow North East,97,"[('brexit', 44), ('independence', 33), ('poverty', 25), ('immigration', 44), ('economy', 62)]"
Newark,97,"[('brexit', 67), ('economy', 55), ('immigration', 110), ('nhs', 27), ('eu', 48)]"
Halton,74,"[('economy', 52), ('eu', 37), ('nhs', 20), ('brexit', 47), ('immigration', 87)]"
Newport West,125,"[('nhs', 76), ('immigration', 102), ('economy', 111), ('brexit', 87), ('eu', 47)]"
Congleton,81,"[('nhs', 26), ('economy', 47), ('eu', 37), ('brexit', 74), ('immigration', 71)]"
Bolton North East,70,"[('nhs', 37), ('immigration', 77), ('eu', 34), ('economy', 28), ('brexit', 41)]"
Burton,95,"[('eu', 46), ('immigration', 117), ('brexit', 71), ('nhs', 27), ('economy', 46)]"
Great Yarmouth,118,"[('economy', 35), ('brexit', 75), ('immigration', 158), ('nhs', 58), ('eu', 51)]"
Aberdeen South,155,"[('brexit', 132), ('immigration', 64), ('nhs', 52), ('eu', 74), ('economy', 173)]"
Poplar and Limehouse,126,"[('immigration', 60), ('housing', 35), ('inequality', 32), ('brexit', 74), ('economy', 102)]"
"Liverpool, Wavertree",83,"[('brexit', 63), ('eu', 30), ('nhs', 61), ('immigration', 65), ('economy', 69)]"
West Aberdeenshire and Kincardine,123,"[('immigration', 50), ('economy', 85), ('independence', 64), ('brexit', 98), ('scottish', 48)]"
Ipswich,89,"[('immigration', 138), ('brexit', 67), ('nhs', 21), ('eu', 29), ('economy', 46)]"
Carmarthen West and South Pembrokeshire,144,"[('immigration', 125), ('eu', 57), ('nhs', 52), ('economy', 92), ('brexit', 98)]"
Stoke-on-Trent North,65,"[('immigration', 77), ('economy', 25), ('brexit', 45), ('nhs', 26), ('eu', 27)]"
Denton and Reddish,65,"[('nhs', 53), ('eu', 33), ('brexit', 29), ('immigration', 49), ('economy', 30)]"
Argyll and Bute,210,"[('eu', 103), ('independence', 91), ('economy', 202), ('immigration', 148), ('brexit', 165)]"
Bromley and Chislehurst,95,"[('brexit', 84), ('housing', 32), ('eu', 36), ('immigration', 107), ('economy', 88)]"
East Dunbartonshire,150,"[('immigration', 74), ('economy', 132), ('eu', 65), ('brexit', 91), ('independence', 58)]"
St Helens South and Whiston,70,"[('immigration', 72), ('nhs', 20), ('terrorism', 21), ('brexit', 42), ('economy', 30)]"
Epping Forest,74,"[('eu', 30), ('referendum', 20), ('nhs', 20), ('economy', 35), ('brexit', 46), ('immigration', 89)]"
Weaver Vale,92,"[('economy', 65), ('eu', 41), ('immigration', 96), ('brexit', 77), ('nhs', 45)]"
Tatton,65,"[('nhs', 21), ('immigration', 53), ('brexit', 53), ('eu', 37), ('economy', 54)]"
Workington,56,"[('brexit', 44), ('economy', 49), ('nhs', 33), ('eu', 29), ('immigration', 52)]"
Midlothian,133,"[('eu', 56), ('immigration', 96), ('referendum', 35), ('brexit', 111), ('economy', 109)]"
Morecambe and Lunesdale,80,"[('immigration', 74), ('brexit', 60), ('nhs', 33), ('eu', 32), ('economy', 54)]"
"Sheffield, Hallam",110,"[('immigration', 36), ('nhs', 25), ('eu', 34), ('brexit', 130), ('economy', 54)]"
Penrith and The Border,71,"[('eu', 38), ('brexit', 62), ('nhs', 39), ('immigration', 49), ('economy', 69)]"
Wealden,129,"[('nhs', 53), ('brexit', 117), ('immigration', 142), ('eu', 50), ('economy', 66)]"
Chelmsford,105,"[('immigration', 85), ('economy', 66), ('brexit', 87), ('eu', 47), ('terrorism', 38)]"
"Plymouth, Sutton and Devonport",120,"[('nhs', 51), ('immigration', 75), ('eu', 53), ('brexit', 74), ('economy', 46)]"
Norwich South,138,"[('eu', 53), ('economy', 82), ('nhs', 57), ('immigration', 81), ('brexit', 79)]"
Falkirk,197,"[('independence', 57), ('economy', 204), ('eu', 60), ('immigration', 117), ('brexit', 115)]"
Manchester Central,117,"[('inequality', 28), ('brexit', 53), ('eu', 28), ('economy', 66), ('immigration', 60)]"
North West Hampshire,86,"[('nhs', 21), ('immigration', 96), ('brexit', 78), ('economy', 71), ('eu', 44)]"
Derbyshire Dales,66,"[('nhs', 21), ('brexit', 41), ('economy', 46), ('eu', 32), ('immigration', 63)]"
Brigg and Goole,90,"[('brexit', 76), ('immigration', 72), ('economy', 66), ('eu', 40), ('nhs', 40)]"
North East Somerset,80,"[('brexit', 51), ('economy', 39), ('immigration', 94), ('eu', 29), ('to', 15)]"
Shrewsbury and Atcham,87,"[('brexit', 52), ('nhs', 22), ('economy', 58), ('immigration', 57), ('eu', 32)]"
Chesham and Amersham,75,"[('to', 14), ('brexit', 94), ('economy', 40), ('election', 14), ('immigration', 48), ('eu', 34)]"
Great Grimsby,66,"[('nhs', 15), ('immigration', 69), ('economy', 33), ('eu', 23), ('brexit', 34)]"
Chippenham,82,"[('brexit', 67), ('eu', 48), ('economy', 53), ('nhs', 30), ('immigration', 60)]"
Darlington,98,"[('eu', 41), ('immigration', 104), ('brexit', 53), ('economy', 55), ('nhs', 36)]"
Banbury,112,"[('brexit', 100), ('eu', 41), ('nhs', 39), ('economy', 74), ('immigration', 71)]"
St Helens North,86,"[('eu', 38), ('brexit', 53), ('economy', 63), ('immigration', 44), ('nhs', 56)]"
Esher and Walton,97,"[('economy', 99), ('eu', 41), ('brexit', 93), ('nhs', 27), ('immigration', 68)]"
Newcastle upon Tyne Central,95,"[('eu', 25), ('nhs', 28), ('brexit', 56), ('immigration', 84), ('economy', 62)]"
Faversham and Mid Kent,76,"[('eu', 30), ('economy', 25), ('imigration', 23), ('brexit', 63), ('immigration', 100)]"
Reigate,84,"[('terrorism', 21), ('eu', 39), ('economy', 47), ('immigration', 92), ('brexit', 89)]"
Rochester and Strood,112,"[('economy', 84), ('nhs', 55), ('eu', 42), ('immigration', 132), ('brexit', 89)]"
"Caithness, Sutherland and Easter Ross",126,"[('eu', 65), ('brexit', 83), ('economy', 121), ('independence', 43), ('immigration', 55)]"
Halifax,94,"[('economy', 44), ('eu', 36), ('nhs', 32), ('brexit', 74), ('immigration', 127)]"
Cities of London and Westminster,110,"[('housing', 31), ('brexit', 86), ('immigration', 57), ('economy', 72), ('eu', 28)]"
Erewash,106,"[('eu', 54), ('economy', 51), ('immigration', 129), ('brexit', 63), ('nhs', 30)]"
Fareham,108,"[('eu', 52), ('immigration', 147), ('economy', 79), ('terrorism', 35), ('brexit', 98)]"
"Liverpool, Riverside",94,"[('immigration', 18), ('economy', 36), ('nhs', 39), ('eu', 27), ('brexit', 57)]"
Gateshead,86,"[('immigration', 82), ('brexit', 59), ('economy', 42), ('eu', 34), ('nhs', 33)]"
Chichester,91,"[('eu', 30), ('immigration', 78), ('economy', 72), ('brexit', 66), ('terrorism', 20)]"
Cheltenham,102,"[('nhs', 45), ('immigration', 71), ('economy', 74), ('eu', 35), ('brexit', 105)]"
Wimbledon,96,"[('immigration', 35), ('brexit', 75), ('nhs', 23), ('eu', 39), ('economy', 87)]"
Mid Dorset and North Poole,93,"[('economy', 51), ('imigration', 28), ('eu', 66), ('brexit', 87), ('immigration', 108)]"
Tiverton and Honiton,96,"[('economy', 55), ('eu', 71), ('brexit', 72), ('nhs', 38), ('immigration', 63)]"
South Staffordshire,79,"[('eu', 41), ('immigration', 96), ('brexit', 54), ('economy', 55), ('nhs', 25)]"
Airdrie and Shotts,88,"[('immigration', 37), ('brexit', 41), ('independence', 21), ('poverty', 25), ('economy', 86)]"
North West Leicestershire,87,"[('eu', 36), ('immigration', 101), ('economy', 49), ('nhs', 23), ('brexit', 98)]"
Edmonton,57,"[('terrorism', 17), ('nhs', 18), ('immigration', 48), ('economy', 29), ('brexit', 34)]"
Tooting,115,"[('economy', 75), ('nhs', 40), ('eu', 33), ('brexit', 90), ('immigration', 47)]"
West Worcestershire,89,"[('eu', 38), ('immigration', 101), ('brexit', 101), ('economy', 63), ('nhs', 22)]"
Leicester South,86,"[('immigration', 42), ('economy', 55), ('nhs', 19), ('eu', 24), ('brexit', 48)]"
Blaydon,92,"[('economy', 65), ('immigration', 96), ('nhs', 21), ('brexit', 55), ('eu', 24)]"
Dudley North,48,"[('brexit', 30), ('immigration', 72), ('eu', 26), ('economy', 32), ('benefits', 10)]"
Torfaen,127,"[('eu', 35), ('immigration', 141), ('nhs', 62), ('economy', 96), ('brexit', 73)]"
Boston and Skegness,115,"[('economy', 52), ('immigration', 176), ('eu', 50), ('brexit', 74), ('nhs', 35)]"
East Worthing and Shoreham,100,"[('eu', 45), ('immigration', 96), ('nhs', 52), ('economy', 42), ('brexit', 79)]"
Braintree,113,"[('immigration', 122), ('economy', 50), ('nhs', 25), ('brexit', 76), ('eu', 39)]"
Ynys Mon,100,"[('eu', 41), ('economy', 66), ('immigration', 89), ('brexit', 66), ('terrorism', 34)]"
Middlesbrough,70,"[('economy', 43), ('immigration', 69), ('eu', 25), ('brexit', 53), ('nhs', 26)]"
Telford,75,"[('immigration', 82), ('nhs', 29), ('eu', 34), ('brexit', 55), ('economy', 28)]"
Monmouth,137,"[('nhs', 68), ('immigration', 144), ('brexit', 101), ('economy', 143), ('eu', 56)]"
"Enfield, Southgate",98,"[('brexit', 91), ('housing', 26), ('nhs', 33), ('immigration', 92), ('economy', 69)]"
Clwyd South,131,"[('nhs', 45), ('brexit', 72), ('eu', 43), ('immigration', 116), ('economy', 110)]"
Lanark and Hamilton East,147,"[('economy', 193), ('brexit', 93), ('immigration', 102), ('scottish', 58), ('independence', 68)]"
South Norfolk,108,"[('eu', 46), ('economy', 84), ('immigration', 88), ('brexit', 120), ('nhs', 35)]"
Kirkcaldy and Cowdenbeath,166,"[('immigration', 69), ('referendum', 53), ('economy', 146), ('eu', 63), ('brexit', 113)]"
North West Durham,87,"[('economy', 51), ('brexit', 43), ('nhs', 30), ('eu', 32), ('immigration', 79)]"
Sutton Coldfield,97,"[('eu', 38), ('economy', 76), ('nhs', 33), ('immigration', 137), ('brexit', 73)]"
Ashfield,86,"[('eu', 38), ('economy', 30), ('immigration', 97), ('nhs', 19), ('brexit', 49)]"
Harborough,85,"[('brexit', 44), ('eu', 49), ('nhs', 37), ('economy', 63), ('immigration', 92)]"
Selby and Ainsty,103,"[('eu', 62), ('nhs', 29), ('immigration', 83), ('economy', 63), ('brexit', 90)]"
Exeter,155,"[('eu', 70), ('immigration', 51), ('brexit', 110), ('economy', 114), ('nhs', 78)]"
Harrow East,96,"[('immigration', 110), ('nhs', 22), ('housing', 22), ('eu', 22), ('terrorism', 27), ('economy', 77), ('brexit', 76)]"
Islington South and Finsbury,97,"[('economy', 76), ('immigration', 52), ('eu', 37), ('brexit', 75), ('nhs', 32)]"
Wansbeck,75,"[('eu', 32), ('brexit', 45), ('economy', 48), ('nhs', 35), ('immigration', 63)]"
Blackley and Broughton,73,"[('immigration', 77), ('terrorism', 16), ('economy', 42), ('nhs', 19), ('brexit', 43)]"
Thurrock,77,"[('economy', 48), ('eu', 25), ('nhs', 37), ('brexit', 71), ('immigration', 100)]"
Wirral South,77,"[('economy', 51), ('eu', 30), ('nhs', 44), ('brexit', 56), ('immigration', 76)]"
Meon Valley,110,"[('economy', 76), ('brexit', 85), ('eu', 47), ('nhs', 35), ('immigration', 87)]"
Twickenham,136,"[('brexit', 123), ('eu', 52), ('immigration', 139), ('inequality', 34), ('economy', 116)]"
Wrexham,93,"[('eu', 27), ('brexit', 56), ('nhs', 46), ('economy', 69), ('immigration', 103)]"
Vale of Glamorgan,159,"[('economy', 147), ('brexit', 82), ('nhs', 55), ('eu', 65), ('immigration', 172)]"
Garston and Halewood,55,"[('economy', 27), ('eu', 18), ('immigration', 51), ('brexit', 40), ('nhs', 24)]"
Tewkesbury,95,"[('brexit', 100), ('economy', 73), ('eu', 47), ('nhs', 38), ('immigration', 103)]"
South Antrim,1,"[('controlled', 1), ('eu', 2), ('immigration', 1), ('membership', 1), ('policy', 1)]"
Cynon Valley,83,"[('nhs', 33), ('poverty', 27), ('immigration', 56), ('terrorism', 32), ('economy', 63)]"
Oxford West and Abingdon,90,"[('immigration', 58), ('nhs', 45), ('brexit', 93), ('economy', 54), ('eu', 55)]"
Weston-Super-Mare,120,"[('immigration', 122), ('nhs', 26), ('eu', 62), ('economy', 69), ('brexit', 65)]"
Easington,76,"[('brexit', 52), ('immigration', 61), ('economy', 43), ('eu', 28), ('nhs', 46)]"
Edinburgh East,226,"[('economy', 164), ('brexit', 190), ('eu', 81), ('inequality', 88), ('independence', 76)]"
Bridgend,144,"[('brexit', 116), ('immigration', 101), ('economy', 159), ('nhs', 67), ('eu', 51)]"
Salford and Eccles,85,"[('eu', 24), ('nhs', 26), ('economy', 41), ('brexit', 63), ('immigration', 76)]"
Newcastle upon Tyne North,82,"[('brexit', 51), ('economy', 57), ('terrorism', 28), ('nhs', 25), ('immigration', 63)]"
Linlithgow and East Falkirk,159,"[('economy', 140), ('immigration', 75), ('brexit', 77), ('eu', 50), ('referendum', 41)]"
Colne Valley,96,"[('brexit', 92), ('eu', 26), ('economy', 67), ('nhs', 51), ('immigration', 55)]"
Warwick and Leamington,116,"[('eu', 48), ('brexit', 94), ('nhs', 47), ('immigration', 68), ('economy', 86)]"
Stratford-on-Avon,71,"[('brexit', 59), ('nhs', 15), ('immigration', 53), ('eu', 24), ('economy', 46)]"
Croydon South,138,"[('terrorism', 33), ('economy', 113), ('immigration', 171), ('brexit', 119), ('eu', 48)]"
Reading East,116,"[('brexit', 107), ('nhs', 36), ('immigration', 51), ('economy', 77), ('eu', 43)]"
St Ives,93,"[('nhs', 26), ('eu', 42), ('brexit', 80), ('economy', 80), ('immigration', 60)]"
Huntingdon,92,"[('brexit', 78), ('nhs', 52), ('immigration', 86), ('eu', 24), ('economy', 54)]"
Holborn and St Pancras,170,"[('eu', 78), ('brexit', 115), ('nhs', 69), ('economy', 143), ('immigration', 63)]"
Stoke-on-Trent Central,63,"[('economy', 19), ('eu', 26), ('immigration', 56), ('brexit', 40), ('nhs', 23)]"
Folkestone and Hythe,130,"[('brexit', 123), ('economy', 92), ('nhs', 40), ('eu', 72), ('immigration', 167)]"
Basildon and Billericay,79,"[('brexit', 51), ('immigration', 85), ('eu', 46), ('economy', 56), ('nhs', 19)]"
South Northamptonshire,97,"[('brexit', 84), ('nhs', 25), ('eu', 44), ('economy', 71), ('immigration', 89)]"
Stroud,78,"[('nhs', 33), ('immigration', 80), ('brexit', 70), ('economy', 55), ('eu', 28)]"
Nuneaton,89,"[('referendum', 24), ('nhs', 24), ('economy', 53), ('eu', 51), ('immigration', 145), ('brexit', 89)]"
Mole Valley,64,"[('economy', 51), ('nhs', 18), ('eu', 23), ('immigration', 41), ('brexit', 66)]"
St Austell and Newquay,124,"[('economy', 35), ('immigration', 141), ('eu', 55), ('nhs', 81), ('brexit', 65)]"
Sutton and Cheam,123,"[('brexit', 70), ('housing', 61), ('immigration', 136), ('economy', 97), ('terrorism', 32)]"
Ilford North,105,"[('immigration', 189), ('brexit', 85), ('nhs', 38), ('economy', 53), ('eu', 25)]"
Aberconwy,112,"[('economy', 92), ('eu', 44), ('brexit', 77), ('nhs', 58), ('immigration', 69)]"
East Ham,85,"[('brexit', 51), ('terrorism', 16), ('immigration', 78), ('eu', 16), ('housing', 32), ('economy', 54), ('to', 16)]"
Chorley,104,"[('immigration', 130), ('nhs', 44), ('eu', 47), ('brexit', 45), ('economy', 43)]"
South East Cambridgeshire,106,"[('immigration', 78), ('eu', 46), ('brexit', 112), ('nhs', 27), ('economy', 69)]"
East Devon,98,"[('immigration', 63), ('nhs', 29), ('eu', 46), ('brexit', 79), ('economy', 78)]"
North Tyneside,116,"[('brexit', 89), ('eu', 41), ('nhs', 46), ('immigration', 89), ('economy', 94)]"
Havant,76,"[('economy', 28), ('brexit', 61), ('eu', 16), ('immigration', 89), ('nhs', 27)]"
Paisley and Renfrewshire North,154,"[('economy', 148), ('government', 40), ('immigration', 86), ('terrorism', 39), ('brexit', 89)]"
Luton North,65,"[('terrorism', 18), ('brexit', 51), ('eu', 24), ('immigration', 100), ('economy', 30)]"
New Forest East,92,"[('economy', 35), ('nhs', 22), ('brexit', 61), ('eu', 37), ('immigration', 92)]"
Central Devon,100,"[('eu', 65), ('economy', 55), ('immigration', 75), ('brexit', 64), ('nhs', 31)]"
Bath,101,"[('brexit', 86), ('economy', 82), ('immigration', 57), ('eu', 48), ('nhs', 24)]"
Wallasey,87,"[('immigration', 74), ('economy', 73), ('brexit', 62), ('nhs', 62), ('eu', 35)]"
Barking,82,"[('brexit', 44), ('immigration', 133), ('nhs', 24), ('eu', 26), ('economy', 44)]"
Oldham West and Royton,71,"[('brexit', 31), ('eu', 13), ('immigration', 42), ('nhs', 28), ('economy', 45), ('terrorism', 13)]"
Barrow and Furness,92,"[('brexit', 76), ('immigration', 93), ('economy', 49), ('eu', 31), ('nhs', 72)]"
Grantham and Stamford,94,"[('brexit', 60), ('eu', 44), ('immigration', 123), ('nhs', 36), ('economy', 66)]"
Chatham and Aylesford,98,"[('eu', 30), ('brexit', 75), ('nhs', 33), ('economy', 53), ('immigration', 71)]"
East Yorkshire,133,"[('nhs', 45), ('immigration', 133), ('brexit', 104), ('eu', 69), ('economy', 70)]"
Broxtowe,138,"[('eu', 57), ('brexit', 126), ('economy', 98), ('nhs', 57), ('immigration', 161)]"
Swansea East,119,"[('eu', 36), ('immigration', 149), ('brexit', 62), ('terrorism', 40), ('economy', 88)]"
Bassetlaw,82,"[('eu', 33), ('economy', 52), ('immigration', 96), ('brexit', 77), ('nhs', 33)]"
Southport,105,"[('brexit', 75), ('eu', 60), ('nhs', 42), ('immigration', 132), ('economy', 102)]"
Mansfield,99,"[('economy', 51), ('terrorism', 23), ('immigration', 121), ('brexit', 63), ('eu', 27)]"
North East Cambridgeshire,139,"[('nhs', 37), ('immigration', 173), ('eu', 76), ('brexit', 103), ('economy', 69)]"
Edinburgh South West,229,"[('brexit', 182), ('independence', 74), ('economy', 247), ('eu', 76), ('immigration', 108)]"
Kensington,71,"[('immigration', 56), ('brexit', 61), ('housing', 30), ('economy', 48), ('eu', 28)]"
Surrey Heath,100,"[('brexit', 71), ('terrorism', 23), ('immigration', 83), ('economy', 96), ('eu', 56)]"
Rotherham,65,"[('brexit', 52), ('eu', 28), ('nhs', 20), ('economy', 24), ('immigration', 108)]"
Merthyr Tydfil and Rhymney,98,"[('eu', 30), ('brexit', 62), ('nhs', 55), ('economy', 63), ('immigration', 87)]"
Harrow West,102,"[('eu', 21), ('housing', 37), ('economy', 79), ('brexit', 63), ('immigration', 103)]"
South Ribble,103,"[('terrorism', 33), ('brexit', 96), ('eu', 50), ('economy', 77), ('immigration', 127)]"
Bury North,102,"[('eu', 35), ('economy', 53), ('brexit', 55), ('immigration', 124), ('nhs', 56)]"
South Cambridgeshire,85,"[('nhs', 28), ('economy', 44), ('brexit', 93), ('eu', 39), ('immigration', 71)]"
Poole,91,"[('immigration', 98), ('eu', 39), ('housing', 36), ('brexit', 74), ('economy', 54)]"
Salisbury,91,"[('economy', 93), ('immigration', 52), ('nhs', 31), ('referendum', 31), ('eu', 64), ('brexit', 77)]"
Gillingham and Rainham,103,"[('economy', 59), ('nhs', 36), ('immigration', 134), ('eu', 58), ('brexit', 89)]"
Skipton and Ripon,81,"[('eu', 30), ('economy', 44), ('immigration', 118), ('nhs', 22), ('brexit', 65)]"
North West Norfolk,70,"[('brexit', 52), ('eu', 49), ('immigration', 80), ('economy', 27), ('nhs', 24)]"
Kenilworth and Southam,69,"[('eu', 28), ('brexit', 56), ('economy', 45), ('immigration', 68), ('nhs', 30)]"
Newport East,139,"[('nhs', 53), ('eu', 47), ('brexit', 97), ('economy', 120), ('immigration', 151)]"
Erith and Thamesmead,105,"[('eu', 36), ('nhs', 52), ('brexit', 56), ('economy', 37), ('immigration', 95)]"
North East Hampshire,96,"[('immigration', 98), ('nhs', 23), ('economy', 87), ('eu', 43), ('brexit', 105)]"
Brent Central,72,"[('nhs', 18), ('immigration', 32), ('brexit', 37), ('housing', 30), ('economy', 62)]"
Livingston,187,"[('immigration', 178), ('economy', 172), ('independence', 64), ('eu', 74), ('brexit', 135)]"
Maidenhead,83,"[('terrorism', 20), ('eu', 27), ('immigration', 49), ('economy', 56), ('brexit', 81)]"
Dwyfor Meirionnydd,90,"[('nhs', 42), ('brexit', 42), ('immigration', 57), ('economy', 45), ('health', 28)]"
Arundel and South Downs,75,"[('brexit', 74), ('economy', 53), ('immigration', 63), ('nhs', 18), ('eu', 34), ('terrorism', 18)]"
Maidstone and The Weald,75,"[('nhs', 21), ('brexit', 43), ('economy', 28), ('terrorism', 21), ('immigration', 88), ('eu', 23)]"
Camborne and Redruth,113,"[('nhs', 73), ('immigration', 117), ('brexit', 80), ('eu', 48), ('economy', 70)]"
Wentworth and Dearne,77,"[('nhs', 21), ('brexit', 35), ('immigration', 104), ('eu', 23), ('economy', 29)]"
North East Derbyshire,87,"[('economy', 41), ('nhs', 36), ('brexit', 72), ('eu', 31), ('immigration', 63)]"
Hitchin and Harpenden,88,"[('immigration', 50), ('nhs', 26), ('brexit', 70), ('economy', 61), ('eu', 32)]"
Ochil and South Perthshire,189,"[('eu', 78), ('referendum', 71), ('economy', 194), ('immigration', 91), ('brexit', 183)]"
"Liverpool, West Derby",58,"[('brexit', 20), ('economy', 36), ('eu', 20), ('immigration', 43), ('nhs', 33)]"
Wantage,123,"[('brexit', 132), ('nhs', 34), ('immigration', 102), ('eu', 50), ('economy', 69)]"
Mid Bedfordshire,83,"[('economy', 59), ('brexit', 75), ('immigration', 112), ('eu', 33), ('nhs', 27)]"
"Coatbridge, Chryston and Bellshill",95,"[('brexit', 43), ('referendum', 21), ('immigration', 51), ('economy', 88), ('poverty', 25)]"
Romford,104,"[('economy', 59), ('terrorism', 32), ('immigration', 174), ('eu', 35), ('brexit', 65)]"
Truro and Falmouth,86,"[('eu', 33), ('brexit', 59), ('nhs', 25), ('immigration', 70), ('economy', 44)]"
Hartlepool,70,"[('immigration', 52), ('brexit', 40), ('nhs', 30), ('economy', 61), ('eu', 19)]"
City of Durham,142,"[('immigration', 75), ('economy', 97), ('brexit', 109), ('eu', 58), ('nhs', 62)]"
Dewsbury,92,"[('eu', 35), ('immigration', 109), ('nhs', 40), ('economy', 53), ('brexit', 73)]"
Beaconsfield,63,"[('eu', 25), ('immigration', 80), ('economy', 42), ('brexit', 64), ('nhs', 16)]"
Jarrow,82,"[('nhs', 45), ('immigration', 101), ('economy', 43), ('brexit', 55), ('eu', 24)]"
Heywood and Middleton,87,"[('eu', 38), ('economy', 36), ('brexit', 58), ('immigration', 92), ('nhs', 48)]"
Calder Valley,106,"[('immigration', 90), ('economy', 81), ('brexit', 93), ('nhs', 44), ('eu', 46)]"
"Birmingham, Edgbaston",83,"[('economy', 51), ('immigration', 53), ('brexit', 54), ('terrorism', 27), ('eu', 24)]"
Angus,141,"[('immigration', 109), ('eu', 47), ('economy', 127), ('referendum', 41), ('brexit', 122)]"
Blackpool North and Cleveleys,96,"[('nhs', 37), ('immigration', 115), ('economy', 47), ('eu', 35), ('brexit', 89)]"
Shipley,89,"[('economy', 65), ('brexit', 67), ('immigration', 80), ('nhs', 36), ('eu', 43)]"
Stoke-on-Trent South,76,"[('eu', 37), ('nhs', 24), ('brexit', 65), ('immigration', 101), ('terrorism', 24), ('economy', 79)]"
Aylesbury,101,"[('immigration', 82), ('brexit', 93), ('economy', 75), ('nhs', 27), ('eu', 29)]"
Bexhill and Battle,94,"[('eu', 57), ('economy', 30), ('nhs', 26), ('immigration', 132), ('brexit', 73)]"
Bury South,97,"[('immigration', 101), ('eu', 40), ('terrorism', 34), ('brexit', 74), ('economy', 60)]"
Wycombe,87,"[('economy', 41), ('immigration', 91), ('nhs', 20), ('eu', 32), ('brexit', 89)]"
Delyn,123,"[('nhs', 70), ('eu', 45), ('economy', 72), ('brexit', 90), ('immigration', 143)]"
Reading West,101,"[('brexit', 68), ('nhs', 42), ('eu', 36), ('economy', 82), ('immigration', 79)]"
Morley and Outwood,101,"[('eu', 36), ('terrorism', 36), ('brexit', 86), ('nhs', 43), ('immigration', 114), ('economy', 78)]"
Wolverhampton North East,56,"[('eu', 24), ('nhs', 23), ('brexit', 40), ('economy', 32), ('immigration', 60)]"
Ribble Valley,75,"[('economy', 59), ('brexit', 70), ('eu', 39), ('immigration', 54), ('nhs', 35)]"
"Birmingham, Selly Oak",97,"[('immigration', 66), ('nhs', 26), ('economy', 41), ('brexit', 69), ('eu', 26)]"
Oldham East and Saddleworth,75,"[('brexit', 27), ('immigration', 144), ('economy', 26), ('eu', 21), ('to', 15)]"
Haltemprice and Howden,87,"[('economy', 38), ('nhs', 34), ('terrorism', 29), ('brexit', 67), ('immigration', 115), ('eu', 29)]"
North Dorset,99,"[('economy', 75), ('immigration', 88), ('brexit', 80), ('eu', 61), ('referendum', 26)]"
Hyndburn,84,"[('nhs', 29), ('brexit', 30), ('immigration', 120), ('economy', 34), ('terrorism', 26)]"
Bristol North West,104,"[('brexit', 92), ('economy', 67), ('eu', 43), ('nhs', 38), ('immigration', 58)]"
Bosworth,73,"[('economy', 52), ('brexit', 61), ('immigration', 70), ('eu', 29), ('referendum', 17)]"
Glasgow South,155,"[('immigration', 96), ('inequality', 38), ('brexit', 87), ('economy', 130), ('nhs', 38), ('independence', 43)]"
Cheadle,78,"[('immigration', 74), ('eu', 33), ('nhs', 31), ('economy', 55), ('brexit', 66)]"
Cardiff South and Penarth,197,"[('eu', 73), ('economy', 228), ('nhs', 91), ('immigration', 124), ('brexit', 137)]"
South Derbyshire,69,"[('economy', 52), ('brexit', 53), ('immigration', 75), ('referendum', 20), ('eu', 39)]"
Blaenau Gwent,88,"[('immigration', 77), ('economy', 47), ('brexit', 56), ('nhs', 31), ('terrorism', 28)]"
Hendon,116,"[('eu', 26), ('brexit', 93), ('housing', 27), ('immigration', 108), ('economy', 94)]"
Doncaster North,107,"[('nhs', 28), ('eu', 43), ('economy', 42), ('immigration', 129), ('brexit', 65)]"
Montgomeryshire,130,"[('immigration', 114), ('economy', 108), ('eu', 44), ('nhs', 64), ('brexit', 81)]"
West Bromwich West,53,"[('economy', 27), ('nhs', 18), ('eu', 22), ('brexit', 32), ('immigration', 71)]"
York Central,166,"[('brexit', 132), ('nhs', 92), ('immigration', 70), ('economy', 64), ('inequality', 59)]"
Charnwood,63,"[('lack', 15), ('eu', 37), ('economy', 34), ('brexit', 48), ('immigration', 73)]"
North Cornwall,82,"[('economy', 65), ('brexit', 53), ('immigration', 47), ('nhs', 36), ('eu', 51)]"
Bedford,79,"[('brexit', 52), ('immigration', 86), ('nhs', 38), ('economy', 29), ('eu', 35)]"
Stafford,99,"[('immigration', 61), ('eu', 57), ('brexit', 69), ('nhs', 52), ('economy', 48)]"
Daventry,68,"[('economy', 43), ('eu', 28), ('nhs', 15), ('brexit', 58), ('immigration', 95)]"
Carlisle,73,"[('eu', 17), ('nhs', 41), ('economy', 40), ('brexit', 58), ('immigration', 103)]"
Blackpool South,93,"[('immigration', 114), ('nhs', 26), ('brexit', 80), ('economy', 40), ('eu', 35)]"
Richmond Park,118,"[('economy', 123), ('brexit', 136), ('immigration', 89), ('eu', 48), ('nhs', 48)]"
Halesowen and Rowley Regis,102,"[('brexit', 83), ('eu', 37), ('economy', 71), ('immigration', 89), ('nhs', 48)]"
Isle of Wight,191,"[('immigration', 208), ('nhs', 84), ('economy', 88), ('brexit', 142), ('eu', 91)]"
Rutherglen and Hamilton West,158,"[('independence', 61), ('brexit', 86), ('scottish', 47), ('immigration', 94), ('economy', 150)]"
"Manchester, Withington",104,"[('nhs', 53), ('economy', 40), ('eu', 33), ('immigration', 65), ('brexit', 63)]"
Bromsgrove,72,"[('nhs', 37), ('brexit', 43), ('immigration', 54), ('eu', 40), ('economy', 30)]"
Hammersmith,115,"[('housing', 42), ('nhs', 42), ('economy', 89), ('eu', 42), ('brexit', 89)]"
Knowsley,54,"[('terrorism', 16), ('economy', 57), ('nhs', 36), ('immigration', 41), ('brexit', 34)]"
Bradford West,57,"[('brexit', 22), ('economy', 36), ('immigration', 64), ('eu', 18), ('nhs', 18)]"
Basingstoke,118,"[('eu', 64), ('referendum', 24), ('economy', 88), ('immigration', 129), ('brexit', 88)]"
Berwick-upon-Tweed,63,"[('nhs', 37), ('economy', 44), ('eu', 28), ('brexit', 56), ('immigration', 79)]"
Worcester,115,"[('eu', 50), ('immigration', 109), ('brexit', 91), ('economy', 96), ('nhs', 48)]"
Lichfield,108,"[('nhs', 40), ('immigration', 147), ('brexit', 109), ('eu', 48), ('economy', 62)]"
Wigan,89,"[('nhs', 34), ('brexit', 61), ('immigration', 107), ('eu', 31), ('economy', 30)]"
Don Valley,81,"[('eu', 38), ('immigration', 93), ('nhs', 21), ('brexit', 77), ('economy', 24)]"
Brecon and Radnorshire,134,"[('immigration', 74), ('economy', 121), ('eu', 63), ('brexit', 112), ('nhs', 60)]"
North Somerset,112,"[('immigration', 98), ('eu', 41), ('brexit', 120), ('economy', 87), ('nhs', 33)]"
Copeland,63,"[('poverty', 19), ('brexit', 31), ('immigration', 46), ('economy', 32), ('eu', 19)]"
Nottingham South,120,"[('eu', 36), ('immigration', 60), ('economy', 50), ('nhs', 44), ('brexit', 66)]"
Old Bexley and Sidcup,91,"[('economy', 75), ('immigration', 117), ('eu', 28), ('nhs', 37), ('brexit', 56)]"
Amber Valley,71,"[('economy', 43), ('nhs', 15), ('brexit', 47), ('immigration', 60), ('eu', 32)]"
"Ealing, Southall",45,"[('economy', 19), ('housing', 17), ('immigration', 62), ('eu', 24), ('brexit', 34)]"
Middlesbrough South and East Cleveland,92,"[('economy', 35), ('eu', 22), ('nhs', 36), ('brexit', 45), ('immigration', 129)]"
Islington North,156,"[('economy', 84), ('housing', 61), ('immigration', 68), ('eu', 61), ('brexit', 98)]"
Wyre and Preston North,87,"[('economy', 83), ('nhs', 42), ('brexit', 78), ('eu', 33), ('immigration', 89)]"
Edinburgh South,199,"[('independence', 65), ('brexit', 160), ('economy', 215), ('immigration', 63), ('eu', 83)]"
North Norfolk,93,"[('brexit', 76), ('immigration', 85), ('economy', 73), ('nhs', 36), ('eu', 40)]"
Altrincham and Sale West,68,"[('immigration', 74), ('economy', 57), ('eu', 31), ('brexit', 56), ('nhs', 23)]"
Hemel Hempstead,100,"[('immigration', 82), ('economy', 68), ('nhs', 44), ('brexit', 79), ('eu', 29)]"
Rugby,105,"[('brexit', 84), ('immigration', 66), ('nhs', 31), ('eu', 50), ('economy', 52)]"
Feltham and Heston,105,"[('nhs', 28), ('brexit', 70), ('eu', 40), ('immigration', 118), ('economy', 61)]"
Gosport,109,"[('nhs', 34), ('immigration', 88), ('brexit', 66), ('eu', 42), ('economy', 69)]"
Central Suffolk and North Ipswich,98,"[('nhs', 40), ('brexit', 78), ('economy', 66), ('immigration', 134), ('eu', 43)]"
Norwich North,105,"[('nhs', 47), ('immigration', 115), ('brexit', 63), ('eu', 40), ('economy', 50)]"
Wyre Forest,75,"[('brexit', 59), ('eu', 31), ('economy', 63), ('immigration', 100), ('to', 21)]"
Tottenham,84,"[('economy', 52), ('brexit', 54), ('nhs', 25), ('inequality', 26), ('eu', 24)]"
Redditch,98,"[('brexit', 75), ('eu', 39), ('economy', 71), ('nhs', 46), ('immigration', 111)]"
Hazel Grove,74,"[('eu', 41), ('brexit', 62), ('immigration', 54), ('terrorism', 23), ('economy', 62)]"
Brentford and Isleworth,128,"[('economy', 116), ('eu', 44), ('brexit', 107), ('housing', 51), ('immigration', 95)]"
Coventry South,96,"[('brexit', 60), ('immigration', 61), ('nhs', 22), ('eu', 31), ('economy', 52)]"
Rutland and Melton,78,"[('immigration', 58), ('brexit', 70), ('economy', 66), ('eu', 42), ('in', 18)]"
"Southampton, Itchen",91,"[('eu', 46), ('economy', 68), ('immigration', 61), ('brexit', 63), ('referendum', 23)]"
Greenwich and Woolwich,122,"[('nhs', 37), ('economy', 76), ('housing', 40), ('immigration', 70), ('brexit', 111)]"
Bournemouth West,96,"[('poverty', 15), ('economy', 39), ('eu', 37), ('immigration', 105), ('brexit', 78), ('terrorism', 15), ('nhs', 15)]"
Inverclyde,126,"[('economy', 131), ('independence', 35), ('immigration', 75), ('brexit', 80), ('eu', 47)]"
"Sheffield, Heeley",106,"[('nhs', 45), ('economy', 50), ('brexit', 80), ('immigration', 137), ('eu', 24)]"
"Birmingham, Erdington",95,"[('brexit', 51), ('eu', 37), ('nhs', 35), ('immigration', 97), ('economy', 37)]"
Coventry North East,63,"[('economy', 31), ('immigration', 77), ('nhs', 15), ('brexit', 56), ('eu', 37)]"
Llanelli,116,"[('economy', 91), ('nhs', 50), ('brexit', 81), ('eu', 45), ('immigration', 167)]"
Dumfries and Galloway,158,"[('economy', 155), ('immigration', 128), ('eu', 70), ('nhs', 43), ('brexit', 114)]"
Mid Sussex,111,"[('immigration', 130), ('eu', 33), ('economy', 73), ('brexit', 77), ('terrorism', 26)]"
Washington and Sunderland West,69,"[('eu', 23), ('terrorism', 24), ('immigration', 67), ('economy', 47), ('brexit', 55)]"
Dundee West,187,"[('eu', 52), ('immigration', 144), ('brexit', 103), ('independence', 55), ('economy', 142)]"
Gower,131,"[('immigration', 170), ('eu', 41), ('economy', 96), ('brexit', 84), ('nhs', 80)]"
Horsham,93,"[('economy', 91), ('brexit', 85), ('eu', 50), ('immigration', 92), ('nhs', 24)]"
Portsmouth North,90,"[('eu', 38), ('nhs', 25), ('brexit', 62), ('immigration', 118), ('economy', 46)]"
Leicester West,75,"[('nhs', 22), ('economy', 56), ('brexit', 54), ('eu', 28), ('immigration', 57)]"
Forest of Dean,76,"[('eu', 36), ('brexit', 62), ('immigration', 48), ('economy', 40), ('nhs', 38)]"
Dagenham and Rainham,74,"[('economy', 36), ('terrorism', 24), ('immigration', 142), ('brexit', 31), ('imigration', 18)]"
Bradford East,88,"[('nhs', 29), ('immigration', 77), ('terrorism', 20), ('economy', 48), ('brexit', 43)]"
Elmet and Rothwell,93,"[('nhs', 45), ('immigration', 91), ('brexit', 88), ('economy', 56), ('eu', 35)]"
Na h-Eileanan an Iar,42,"[('economy', 19), ('in', 8), ('to', 8), ('immigration', 15), ('brexit', 33)]"
North East Hertfordshire,84,"[('brexit', 59), ('eu', 36), ('nhs', 24), ('immigration', 62), ('economy', 36)]"
Romsey and Southampton North,80,"[('nhs', 22), ('economy', 23), ('eu', 43), ('immigration', 60), ('brexit', 73)]"
Vale of Clwyd,114,"[('eu', 46), ('nhs', 50), ('brexit', 62), ('economy', 87), ('immigration', 129)]"
"Manchester, Gorton",92,"[('economy', 40), ('nhs', 22), ('eu', 31), ('immigration', 49), ('brexit', 65)]"
South West Hertfordshire,89,"[('economy', 52), ('immigration', 101), ('brexit', 56), ('nhs', 27), ('eu', 40)]"
Dulwich and West Norwood,103,"[('eu', 41), ('economy', 89), ('housing', 51), ('brexit', 87), ('immigration', 32)]"
North East Bedfordshire,119,"[('eu', 41), ('economy', 55), ('immigration', 121), ('brexit', 106), ('nhs', 26)]"
Loughborough,107,"[('economy', 49), ('nhs', 28), ('brexit', 64), ('eu', 53), ('immigration', 95)]"
Tunbridge Wells,84,"[('immigration', 42), ('economy', 52), ('eu', 44), ('brexit', 88), ('nhs', 24)]"
Gordon,142,"[('brexit', 116), ('immigration', 88), ('scottish', 50), ('independence', 55), ('economy', 141)]"
Redcar,83,"[('nhs', 40), ('economy', 46), ('brexit', 56), ('eu', 31), ('immigration', 55)]"
Richmond (Yorks),90,"[('economy', 75), ('immigration', 66), ('brexit', 86), ('nhs', 27), ('eu', 43)]"
Westmorland and Lonsdale,71,"[('brexit', 52), ('economy', 25), ('nhs', 28), ('immigration', 62), ('eu', 18)]"
Bootle,79,"[('immigration', 52), ('economy', 37), ('nhs', 30), ('brexit', 58), ('eu', 19)]"
"Normanton, Pontefract and Castleford",82,"[('immigration', 82), ('eu', 25), ('economy', 46), ('nhs', 27), ('brexit', 49)]"
Preseli Pembrokeshire,166,"[('brexit', 102), ('nhs', 94), ('economy', 112), ('eu', 63), ('immigration', 111)]"
Henley,67,"[('eu', 30), ('brexit', 62), ('immigration', 46), ('economy', 40), ('referendum', 12), ('terrorism', 12)]"
Milton Keynes North,112,"[('eu', 45), ('brexit', 85), ('nhs', 33), ('economy', 64), ('immigration', 119)]"
Birkenhead,56,"[('immigration', 37), ('nhs', 23), ('economy', 50), ('eu', 18), ('brexit', 42)]"
The Cotswolds,61,"[('economy', 40), ('brexit', 52), ('eu', 29), ('immigration', 37), ('terrorism', 18), ('nhs', 18)]"
Northampton South,84,"[('immigration', 104), ('nhs', 28), ('economy', 40), ('brexit', 66), ('eu', 32)]"
Tynemouth,121,"[('nhs', 39), ('brexit', 85), ('economy', 79), ('immigration', 113), ('eu', 55)]"
Hemsworth,65,"[('brexit', 67), ('immigration', 56), ('economy', 31), ('nhs', 30), ('eu', 27)]"
Harwich and North Essex,90,"[('immigration', 101), ('eu', 37), ('nhs', 28), ('economy', 48), ('brexit', 66)]"
Uxbridge and South Ruislip,97,"[('housing', 28), ('immigration', 110), ('eu', 43), ('economy', 85), ('brexit', 97)]"
Orkney and Shetland,89,"[('eu', 39), ('brexit', 66), ('scottish', 29), ('nhs', 29), ('economy', 52), ('immigration', 69)]"
Beckenham,105,"[('economy', 99), ('immigration', 141), ('housing', 23), ('brexit', 95), ('terrorism', 30)]"
Makerfield,87,"[('immigration', 85), ('brexit', 62), ('nhs', 32), ('eu', 40), ('economy', 62)]"
Thornbury and Yate,66,"[('immigration', 82), ('economy', 43), ('brexit', 45), ('eu', 37), ('nhs', 35)]"
Stockton North,63,"[('immigration', 66), ('brexit', 46), ('economy', 47), ('nhs', 30), ('terrorism', 17)]"
Oxford East,120,"[('immigration', 39), ('brexit', 85), ('nhs', 33), ('eu', 32), ('economy', 70)]"
Leeds East,85,"[('immigration', 93), ('eu', 29), ('economy', 56), ('brexit', 71), ('nhs', 40)]"
Brent North,85,"[('immigration', 58), ('economy', 84), ('eu', 18), ('brexit', 63), ('nhs', 29)]"
Hampstead and Kilburn,126,"[('housing', 32), ('eu', 60), ('economy', 98), ('immigration', 41), ('brexit', 89)]"
Wakefield,89,"[('brexit', 59), ('immigration', 115), ('nhs', 65), ('economy', 64), ('eu', 43)]"
Bermondsey and Old Southwark,138,"[('housing', 55), ('economy', 89), ('brexit', 112), ('inequality', 42), ('immigration', 80)]"
Hertford and Stortford,111,"[('economy', 75), ('brexit', 125), ('nhs', 35), ('eu', 53), ('immigration', 92)]"
Cardiff West,186,"[('brexit', 116), ('economy', 196), ('eu', 66), ('immigration', 150), ('nhs', 56)]"
Yeovil,96,"[('eu', 54), ('immigration', 109), ('nhs', 41), ('economy', 62), ('brexit', 81)]"
Waveney,119,"[('immigration', 146), ('brexit', 67), ('eu', 42), ('nhs', 42), ('economy', 70)]"
Torridge and West Devon,130,"[('immigration', 146), ('economy', 82), ('eu', 58), ('nhs', 46), ('brexit', 121)]"
North Herefordshire,79,"[('nhs', 28), ('immigration', 77), ('economy', 42), ('eu', 31), ('brexit', 65)]"
Camberwell and Peckham,119,"[('nhs', 45), ('economy', 97), ('immigration', 35), ('eu', 37), ('brexit', 89)]"
Walthamstow,89,"[('economy', 43), ('housing', 38), ('brexit', 72), ('immigration', 34), ('nhs', 32)]"
East Lothian,166,"[('eu', 65), ('immigration', 121), ('economy', 160), ('independence', 63), ('brexit', 135)]"
Dover,106,"[('eu', 37), ('economy', 60), ('brexit', 94), ('immigration', 89), ('nhs', 32)]"
Gravesham,88,"[('eu', 30), ('nhs', 25), ('immigration', 131), ('economy', 37), ('brexit', 50)]"
North Devon,86,"[('brexit', 85), ('eu', 39), ('immigration', 99), ('economy', 47), ('nhs', 51)]"
Eastleigh,107,"[('economy', 83), ('brexit', 109), ('immigration', 102), ('eu', 53), ('nhs', 40)]"
Bournemouth East,75,"[('economy', 35), ('brexit', 69), ('eu', 31), ('nhs', 19), ('immigration', 111)]"
Aberdeen North,158,"[('immigration', 99), ('nhs', 65), ('independence', 47), ('brexit', 110), ('eu', 47), ('economy', 143)]"
Castle Point,62,"[('terrorism', 25), ('brexit', 35), ('economy', 50), ('immigration', 89), ('nhs', 30)]"
Ogmore,124,"[('brexit', 67), ('immigration', 176), ('economy', 88), ('nhs', 51), ('eu', 44)]"
Pontypridd,120,"[('nhs', 45), ('brexit', 82), ('immigration', 112), ('eu', 41), ('economy', 133)]"
Brentwood and Ongar,84,"[('eu', 30), ('nhs', 24), ('brexit', 56), ('economy', 56), ('immigration', 71)]"
Swansea West,182,"[('economy', 139), ('nhs', 70), ('inequality', 77), ('brexit', 143), ('immigration', 159)]"
Crewe and Nantwich,92,"[('economy', 48), ('terrorism', 24), ('immigration', 83), ('brexit', 71), ('eu', 32)]"
Beverley and Holderness,109,"[('immigration', 149), ('eu', 60), ('nhs', 52), ('economy', 38), ('brexit', 89)]"
Canterbury,124,"[('eu', 54), ('nhs', 43), ('economy', 74), ('immigration', 68), ('brexit', 97)]"
South West Devon,82,"[('economy', 48), ('eu', 39), ('immigration', 97), ('nhs', 30), ('brexit', 73)]"
Kingston upon Hull North,108,"[('brexit', 68), ('eu', 44), ('economy', 106), ('immigration', 91), ('nhs', 30)]"
Nottingham East,86,"[('immigration', 90), ('nhs', 26), ('eu', 30), ('brexit', 69), ('economy', 26)]"
"Ruislip, Northwood and Pinner",126,"[('immigration', 138), ('nhs', 34), ('economy', 58), ('eu', 46), ('brexit', 97)]"
Macclesfield,98,"[('economy', 59), ('immigration', 93), ('eu', 41), ('nhs', 33), ('brexit', 81)]"
Bury St Edmunds,100,"[('referendum', 29), ('brexit', 69), ('immigration', 102), ('eu', 53), ('economy', 86)]"
Maldon,98,"[('brexit', 68), ('nhs', 21), ('immigration', 112), ('eu', 55), ('economy', 57)]"
Wirral West,73,"[('immigration', 53), ('to', 19), ('economy', 56), ('nhs', 43), ('brexit', 33)]"
Wells,99,"[('nhs', 50), ('immigration', 88), ('economy', 55), ('eu', 45), ('brexit', 73)]"
Bristol South,99,"[('brexit', 67), ('immigration', 36), ('nhs', 35), ('eu', 48), ('economy', 62)]"
Leicester East,47,"[('nhs', 15), ('immigration', 37), ('terrorism', 19), ('economy', 17), ('brexit', 26)]"
Welwyn Hatfield,108,"[('brexit', 59), ('economy', 79), ('eu', 34), ('immigration', 118), ('nhs', 32)]"
Gedling,96,"[('nhs', 33), ('economy', 53), ('brexit', 98), ('immigration', 108), ('eu', 43)]"
Suffolk Coastal,103,"[('brexit', 68), ('economy', 49), ('eu', 46), ('nhs', 22), ('immigration', 127)]"
Milton Keynes South,138,"[('economy', 75), ('immigration', 160), ('eu', 55), ('brexit', 96), ('nhs', 47)]"
"Sheffield, Brightside and Hillsborough",67,"[('immigration', 122), ('eu', 17), ('economy', 31), ('nhs', 14), ('brexit', 34)]"
Motherwell and Wishaw,115,"[('eu', 30), ('brexit', 59), ('immigration', 99), ('independence', 30), ('economy', 96)]"
Thirsk and Malton,101,"[('economy', 60), ('brexit', 86), ('eu', 49), ('nhs', 39), ('immigration', 79)]"
Dudley South,56,"[('economy', 35), ('brexit', 38), ('immigration', 75), ('terrorism', 26), ('eu', 24)]"
